{
    "font": {
        "name": "Noemie",
        "title": {
            "name": "Lobster",
            "local": "Lobster",
            "css1": "Lobster",
            "css2": "cursive"
        },
        "main": {
            "name": "Handlee",
            "local": "Handlee",
            "css1": "Handlee",
            "css2": "cursive"
        }
    },
    "theme": {
        "name": "Grav",
        "menu_background": "#3b3b3b",
        "main_background": "#FFFFFF",
        "main_color": "#2A3A42",
        "contrasted_color": "#FFFFFF",
        "second_background": "#96C7A2",
        "second_color": "#44685E"
    },
    "params": {
        "title": "framasite",
        "titleSize": "medium",
        "favIcon": "",
        "siteLogo": "",
        "lang": "fr_FR",
        "description": "Site",
        "keywords": "site, internet, CMS, framasite",
        "isPublished": "true"
    }
}
